<svg width="20" height="21" viewBox="0 0 20 21" fill="none" xmlns="http://www.w3.org/2000/svg">
<path d="M18.168 11.5215H2.10026" stroke="#171617" stroke-width="2" stroke-linecap="round" stroke-linejoin="round"/>
<path d="M7.93359 5.98047L2.10026 11.5221L7.93359 17.0638" stroke="#171617" stroke-width="2" stroke-linecap="round" stroke-linejoin="round"/>
</svg>
