<svg width="19" height="14" viewBox="0 0 19 14" fill="none" xmlns="http://www.w3.org/2000/svg">
<path d="M1.83203 6.54395H17.8997" stroke="white" stroke-width="2" stroke-linecap="round" stroke-linejoin="round"/>
<path d="M12.0664 1.00195L17.8997 6.54362L12.0664 12.0853" stroke="white" stroke-width="2" stroke-linecap="round" stroke-linejoin="round"/>
</svg>
