<svg width="54" height="74" viewBox="0 0 54 74" fill="none" xmlns="http://www.w3.org/2000/svg">
<path d="M45.8 71.7526H8.23053C4.34797 71.7526 1.32186 68.184 1.72153 64.0731L6.3178 19.5664H47.6842L52.2804 64.0731C52.7372 68.184 49.7111 71.7526 45.8 71.7526Z" stroke="#C99238" stroke-width="3" stroke-linecap="round" stroke-linejoin="round"/>
<path d="M38.3197 32.5269V13.0571C38.3197 6.80499 33.2666 1.75195 27.0146 1.75195C20.7625 1.75195 15.7095 6.80499 15.7095 13.0571V32.5269" stroke="#C99238" stroke-width="3" stroke-linecap="round" stroke-linejoin="round"/>
</svg>
