<svg width="15" height="14" viewBox="0 0 15 14" fill="none" xmlns="http://www.w3.org/2000/svg">
<path d="M7.37102 1.5776L8.93205 4.74008C9.01594 4.91002 9.17801 5.02787 9.36554 5.05528L12.8572 5.56565L10.3311 8.02608C10.1952 8.1585 10.1331 8.34936 10.1652 8.53642L10.7612 12.0116L7.6393 10.3698C7.47135 10.2815 7.27069 10.2815 7.10274 10.3698L3.98081 12.0116L4.57685 8.53642C4.60893 8.34936 4.54687 8.1585 4.41092 8.02608L1.8848 5.56565L5.3765 5.05528C5.56403 5.02787 5.7261 4.91002 5.80999 4.74008L7.37102 1.5776Z" stroke="#D5C1A5" stroke-width="1.15278" stroke-linecap="round" stroke-linejoin="round"/>
</svg>
