<svg width="202" height="105" viewBox="0 0 202 105" fill="none" xmlns="http://www.w3.org/2000/svg">
<g clip-path="url(#clip0)">
<g clip-path="url(#clip1)">
<path d="M1.54297 91.5936V93.2153L200.435 68.8495L200.433 67.2289L1.54297 91.5936Z" fill="url(#paint0_linear)"/>
<path d="M1.54297 85.1814V88.083L200.435 63.7177V60.8167L1.54297 85.1814Z" fill="url(#paint1_linear)"/>
<path d="M1.54297 29.6552V31.2764L200.435 6.91055V5.2905L1.54297 29.6552Z" fill="url(#paint2_linear)"/>
<path d="M1.54297 34.8128V37.7139L200.435 13.3491V10.4486L1.54297 34.8128Z" fill="url(#paint3_linear)"/>
<path d="M156.29 28.9952V55.8498L179.025 53.0661V47.6024L163.398 49.5179V44.0569L177.384 42.3437V36.8816L163.398 38.5953V33.588L179.025 31.6697V26.2076L156.29 28.9952ZM136.424 31.4305L123.895 44.117V32.9646L116.789 33.8344V60.689L123.895 59.8192V47.0732L137.016 58.2118L146.948 56.9952L131.367 44.5282L145.718 30.2906L136.424 31.4305ZM95.8994 36.3948V63.2494L103.006 62.378V35.5234L95.8994 36.3948ZM71.5599 39.3748L59.0761 40.905V67.7596L66.1843 66.8897V56.1557L69.6914 55.7241L76.4339 65.6324L84.9536 64.5895L76.7532 54.2535C81.3084 53.0121 83.7233 49.7957 83.7233 46.0413C83.7233 40.8868 79.9543 39.1526 74.9333 39.1526C73.8582 39.1526 72.7251 39.2326 71.5599 39.3748ZM66.1843 45.0425L70.8306 44.4725C73.4278 44.1544 76.3433 44.2145 76.3433 46.9078C76.3433 49.8282 72.9715 50.3171 70.3748 50.6341L66.1843 51.1489V45.0425ZM35.7935 43.7581L23.8125 45.2255V72.0801L30.9185 71.2097V60.7408L36.1134 60.1036C42.9001 59.2724 48.0481 56.7081 48.0481 50.4114C48.0481 45.2117 44.3487 43.5205 39.3488 43.5205C38.2206 43.5205 37.0261 43.6065 35.7935 43.7581ZM30.9185 49.3613L34.5637 48.9154C37.2974 48.5808 40.6686 48.5461 40.6686 51.316C40.6686 53.8191 38.1631 54.8466 35.6571 55.153L30.9185 55.7346V49.3613Z" fill="url(#paint4_linear)"/>
<path d="M174.677 80.1197C173.828 80.2238 172.988 80.6819 172.267 81.3489L172.71 82.146C173.265 81.5727 173.948 81.1802 174.53 81.1091C175.241 81.022 175.665 81.2789 175.665 81.8119C175.665 82.1862 175.332 82.7507 174.844 83.3063L172.378 86.1903V87.0028L177.114 86.4224V85.4318L173.809 85.837L175.582 83.8051C176.293 82.97 176.8 82.1686 176.8 81.5137C176.8 80.6191 176.126 80.0937 175.092 80.0937C174.959 80.0937 174.821 80.102 174.677 80.1197ZM168.841 80.8346C167.474 81.0022 166.58 81.9525 166.58 83.309C166.58 84.5813 167.364 85.3072 168.647 85.1496C169.46 85.0504 170.06 84.659 170.402 84.0008C170.439 85.4169 169.857 86.4428 168.61 86.5955C168.12 86.6555 167.585 86.5717 167.188 86.3579L166.764 87.2426C167.289 87.4763 168.047 87.5799 168.684 87.5017C170.383 87.2933 171.462 85.7967 171.462 83.7021C171.462 81.8522 170.62 80.8109 169.219 80.8109C169.097 80.8109 168.971 80.8186 168.841 80.8346ZM167.594 83.1944C167.594 82.399 168.12 81.8665 168.897 81.7711C169.829 81.657 170.236 82.2623 170.226 82.8339C170.236 83.5069 169.728 84.1486 168.85 84.2566C168.776 84.2654 168.704 84.2698 168.635 84.2698C167.986 84.2698 167.594 83.8707 167.594 83.1944ZM163.144 81.533C161.777 81.7 160.882 82.6503 160.882 84.0069C160.882 85.2791 161.666 86.0051 162.95 85.848C163.762 85.7482 164.363 85.3574 164.705 84.6987C164.741 86.1148 164.16 87.1406 162.913 87.2933C162.423 87.3534 161.887 87.2696 161.491 87.0557L161.066 87.9399C161.592 88.1747 162.349 88.2778 162.987 88.2001C164.686 87.9917 165.766 86.4946 165.766 84.4005C165.766 82.55 164.923 81.5087 163.523 81.5087C163.401 81.5087 163.275 81.5165 163.144 81.533ZM161.897 83.8917C161.897 83.0963 162.423 82.5643 163.199 82.4695C164.132 82.3549 164.539 82.9601 164.529 83.5323C164.539 84.2042 164.03 84.8464 163.153 84.9545C163.079 84.9633 163.007 84.9677 162.939 84.9677C162.29 84.9677 161.897 84.5686 161.897 83.8917ZM155.785 82.4806V83.4711L157.18 83.3002V88.8648L158.268 88.7309V82.1768L155.785 82.4806ZM146.404 83.6398V84.6298L148.444 84.3801V89.9348L149.533 89.8014V84.2461L151.583 83.9953V83.0053L146.404 83.6398ZM143.55 83.9424C142.146 84.1144 141.196 84.9313 141.196 86.053C141.196 88.3825 144.686 87.1412 144.686 88.6003C144.686 89.1057 144.234 89.4508 143.476 89.544C142.783 89.6288 141.952 89.3935 141.288 88.8577L140.817 89.8697C141.482 90.4044 142.441 90.7076 143.458 90.583C144.88 90.4083 145.895 89.5649 145.895 88.3963C145.904 86.0376 142.414 87.2327 142.414 85.8011C142.414 85.3618 142.83 85.0675 143.467 84.9897C143.956 84.9296 144.658 85.0212 145.36 85.3657L145.812 84.3376C145.33 84.0741 144.705 83.9126 144.042 83.9126C143.879 83.9126 143.715 83.922 143.55 83.9424ZM136.681 84.831L133.828 91.7252L134.963 91.5862L135.582 90.0329L138.84 89.6338L139.459 91.0356L140.622 90.8928L137.797 84.6937L136.681 84.831ZM137.206 85.9434L138.425 88.7039L135.988 89.0021L137.206 85.9434ZM129.94 85.6562V86.6467L131.981 86.3965V91.9512L133.069 91.8183V86.2631L135.119 86.0123V85.0217L129.94 85.6562ZM127.086 85.9593C125.682 86.1313 124.732 86.9482 124.732 88.0705C124.732 90.3995 128.223 89.1581 128.223 90.6172C128.223 91.1221 127.77 91.4677 127.012 91.5609C126.319 91.6458 125.488 91.4104 124.824 90.8746L124.354 91.8861C125.018 92.4219 125.977 92.7245 126.994 92.6C128.417 92.4258 129.431 91.5818 129.431 90.4132C129.44 88.0551 125.95 89.2496 125.95 87.8186C125.95 87.3787 126.366 87.0844 127.003 87.0061C127.492 86.946 128.194 87.0381 128.896 87.382L129.348 86.3546C128.867 86.0911 128.242 85.9296 127.579 85.9296C127.417 85.9296 127.252 85.9389 127.086 85.9593ZM120.217 86.8474L117.364 93.7421L118.499 93.6026L119.118 92.0498L122.376 91.6502L122.995 93.0525L124.159 92.9097L121.333 86.7112L120.217 86.8474ZM120.743 87.9603L121.961 90.7208L119.524 91.019L120.743 87.9603ZM113.402 87.6825L110.549 94.5772L111.685 94.4377L112.303 92.8844L115.563 92.4853L116.181 93.8871L117.344 93.7448L114.519 87.5452L113.402 87.6825ZM113.928 88.7954L115.147 91.5554L112.71 91.8541L113.928 88.7954ZM103.374 88.9106L100.725 89.2358V95.7805L103.347 95.4592C105.305 95.2199 106.716 93.6633 106.716 91.7742C106.716 90.0357 105.54 88.8808 103.853 88.8808C103.697 88.8808 103.537 88.8908 103.374 88.9106ZM101.813 90.0924L103.356 89.9034C104.63 89.7474 105.619 90.5803 105.619 91.9175C105.619 93.246 104.658 94.3082 103.402 94.4625L101.813 94.6571V90.0924ZM97.9363 89.577V96.1223L99.0247 95.9889V89.4436L97.9363 89.577ZM93.6143 90.1062L90.9646 90.4314V96.9767L93.5861 96.6548C95.5446 96.4155 96.9562 94.8589 96.9562 92.9698C96.9562 91.2313 95.7805 90.0764 94.0933 90.0764C93.9375 90.0764 93.7778 90.0864 93.6143 90.1062ZM92.0529 91.288L93.5955 91.099C94.87 90.943 95.859 91.7759 95.859 93.1137C95.859 94.4416 94.8982 95.5044 93.6413 95.6582L92.0529 95.8527V91.288ZM86.9105 90.9281L84.2884 91.2489V97.7941L85.3773 97.6608V95.6874L86.9105 95.4994C87.0121 95.4873 87.1132 95.4746 87.2061 95.4542L88.3884 97.292L89.6243 97.1404L88.1762 95.1301C89.0342 94.6885 89.5138 93.8909 89.5138 92.8436C89.5138 91.5835 88.7679 90.8934 87.4475 90.8934C87.2779 90.8934 87.0989 90.9049 86.9105 90.9281ZM85.3773 92.1055L86.9105 91.9181C87.9077 91.7957 88.4806 92.1375 88.4806 92.9979C88.4806 93.8865 87.9077 94.387 86.9105 94.5099L85.3773 94.6974V92.1055ZM78.2316 91.9908V98.5361L82.958 97.9573V96.9668L79.32 97.4127V95.6069L82.4779 95.2199V94.2387L79.32 94.6257V92.848L82.847 92.4158V91.4253L78.2316 91.9908ZM74.5924 92.4373L72.0168 92.7526V99.2973L73.1051 99.1639V97.1906L74.5924 97.0087C76.2184 96.8097 77.1498 95.8356 77.1498 94.3578C77.1498 93.0961 76.4161 92.4037 75.1139 92.4037C74.9488 92.4037 74.7753 92.4147 74.5924 92.4373ZM73.1051 93.6092L74.5466 93.4329C75.5443 93.3105 76.1079 93.6528 76.1079 94.5138C76.1079 95.4029 75.5443 95.9018 74.5466 96.0242L73.1051 96.2006V93.6092ZM68.3969 93.149C66.9931 93.321 66.0428 94.1384 66.0428 95.2602C66.0428 97.5891 69.5334 96.3477 69.5334 97.8068C69.5334 98.3123 69.0803 98.6579 68.3229 98.7505C67.6301 98.8354 66.7997 98.6006 66.1351 98.0643L65.6644 99.0763C66.3284 99.611 67.2881 99.9142 68.3046 99.7896C69.7267 99.6154 70.7416 98.772 70.7416 97.6029C70.751 95.2447 67.2605 96.4392 67.2605 95.0077C67.2605 94.5684 67.6759 94.274 68.3135 94.1963C68.8035 94.1362 69.5057 94.2277 70.2068 94.5722L70.6588 93.5442C70.1764 93.2807 69.5516 93.1192 68.8881 93.1192C68.7262 93.1192 68.5621 93.1286 68.3969 93.149ZM63.955 93.7399L60.8711 97.5026V94.118L59.7827 94.2514V100.796L60.8711 100.663V98.9986L61.9699 97.6393L64.0937 100.268L65.4047 100.107L62.7362 96.6851L65.2384 93.5828L63.955 93.7399ZM53.7253 94.9928V101.538L58.4517 100.959V99.9687L54.8137 100.415V98.6089L57.9716 98.2219V97.2413L54.8137 97.6277V95.8505L58.3413 95.4178V94.4278L53.7253 94.9928ZM51.1215 95.312V101.857L52.2098 101.724V95.1791L51.1215 95.312ZM47.3165 95.7502C45.3586 95.99 43.8542 97.604 43.8542 99.4748C43.8542 101.346 45.3398 102.612 47.2519 102.378C48.1386 102.27 49.1082 101.805 49.7629 101.221V98.8073L48.8132 98.9236V100.748C48.3513 101.085 47.8066 101.32 47.3259 101.379C46.005 101.541 44.9613 100.649 44.9613 99.3392C44.9613 98.0389 45.9961 96.8929 47.3165 96.7308C47.9906 96.6487 48.6834 96.8444 49.1817 97.2506L49.7999 96.3626C49.2673 95.958 48.5348 95.7226 47.7685 95.7226C47.6187 95.7226 47.4674 95.7315 47.3165 95.7502ZM40.0592 96.6393C38.1283 96.8758 36.6333 98.4793 36.6333 100.36C36.6333 102.23 38.1283 103.495 40.0592 103.259C41.989 103.023 43.484 101.391 43.484 99.5206C43.484 97.8024 42.2232 96.6107 40.5227 96.6107C40.3713 96.6107 40.2166 96.62 40.0592 96.6393ZM37.7404 100.224C37.7404 98.9236 38.7935 97.7848 40.068 97.6282C41.3332 97.4733 42.3674 98.357 42.3674 99.6567C42.3674 100.957 41.3332 102.113 40.068 102.268C39.9724 102.279 39.878 102.286 39.7857 102.286C38.6482 102.286 37.7404 101.426 37.7404 100.224ZM32.8383 97.524C30.9074 97.7605 29.4129 99.364 29.4129 101.244C29.4129 103.115 30.9074 104.38 32.8383 104.144C34.7686 103.907 36.2631 102.276 36.2631 100.405C36.2631 98.6871 35.0023 97.4954 33.3018 97.4954C33.1504 97.4954 32.9957 97.5048 32.8383 97.524ZM30.5195 101.109C30.5195 99.8083 31.5726 98.6689 32.8471 98.5129C34.1129 98.3581 35.1471 99.2417 35.1471 100.542C35.1471 101.842 34.1129 102.998 32.8471 103.153C32.7515 103.164 32.6576 103.17 32.5648 103.17C31.4273 103.17 30.5195 102.311 30.5195 101.109ZM25.0544 98.5052V99.4958L27.2892 99.2218V102.72C27.2892 103.394 26.9472 103.801 26.366 103.872C25.9229 103.927 25.4146 103.736 24.9898 103.32L24.4727 104.225C24.9533 104.764 25.5997 105.031 26.3754 104.935C27.6212 104.783 28.387 103.942 28.387 102.623V98.0973L25.0544 98.5052Z" fill="url(#paint5_linear)"/>
</g>
</g>
<defs>
<linearGradient id="paint0_linear" x1="1.54295" y1="93.2149" x2="200.435" y2="93.2149" gradientUnits="userSpaceOnUse">
<stop stop-color="#A0772B"/>
<stop offset="0.2" stop-color="#B39256"/>
<stop offset="0.4" stop-color="#F0C964"/>
<stop offset="0.53" stop-color="#F1CF75"/>
<stop offset="0.65" stop-color="#F0C964"/>
<stop offset="0.8" stop-color="#B39256"/>
<stop offset="1" stop-color="#A0772B"/>
</linearGradient>
<linearGradient id="paint1_linear" x1="1.54295" y1="88.0834" x2="200.435" y2="88.0834" gradientUnits="userSpaceOnUse">
<stop stop-color="#A0772B"/>
<stop offset="0.2" stop-color="#B39256"/>
<stop offset="0.4" stop-color="#F0C964"/>
<stop offset="0.53" stop-color="#F1CF75"/>
<stop offset="0.65" stop-color="#F0C964"/>
<stop offset="0.8" stop-color="#B39256"/>
<stop offset="1" stop-color="#A0772B"/>
</linearGradient>
<linearGradient id="paint2_linear" x1="1.54295" y1="31.2761" x2="200.435" y2="31.2761" gradientUnits="userSpaceOnUse">
<stop stop-color="#A0772B"/>
<stop offset="0.2" stop-color="#B39256"/>
<stop offset="0.4" stop-color="#F0C964"/>
<stop offset="0.53" stop-color="#F1CF75"/>
<stop offset="0.65" stop-color="#F0C964"/>
<stop offset="0.8" stop-color="#B39256"/>
<stop offset="1" stop-color="#A0772B"/>
</linearGradient>
<linearGradient id="paint3_linear" x1="1.54295" y1="37.7142" x2="200.435" y2="37.7142" gradientUnits="userSpaceOnUse">
<stop stop-color="#A0772B"/>
<stop offset="0.2" stop-color="#B39256"/>
<stop offset="0.4" stop-color="#F0C964"/>
<stop offset="0.53" stop-color="#F1CF75"/>
<stop offset="0.65" stop-color="#F0C964"/>
<stop offset="0.8" stop-color="#B39256"/>
<stop offset="1" stop-color="#A0772B"/>
</linearGradient>
<linearGradient id="paint4_linear" x1="23.8126" y1="72.0801" x2="179.025" y2="72.0801" gradientUnits="userSpaceOnUse">
<stop stop-color="#A0772B"/>
<stop offset="0.2" stop-color="#B39256"/>
<stop offset="0.4" stop-color="#F0C964"/>
<stop offset="0.53" stop-color="#F1CF75"/>
<stop offset="0.65" stop-color="#F0C964"/>
<stop offset="0.8" stop-color="#B39256"/>
<stop offset="1" stop-color="#A0772B"/>
</linearGradient>
<linearGradient id="paint5_linear" x1="24.4727" y1="105.169" x2="177.114" y2="105.169" gradientUnits="userSpaceOnUse">
<stop stop-color="#A0772B"/>
<stop offset="0.2" stop-color="#B39256"/>
<stop offset="0.4" stop-color="#F0C964"/>
<stop offset="0.53" stop-color="#F1CF75"/>
<stop offset="0.65" stop-color="#F0C964"/>
<stop offset="0.8" stop-color="#B39256"/>
<stop offset="1" stop-color="#A0772B"/>
</linearGradient>
<clipPath id="clip0">
<rect width="202" height="105" fill="white"/>
</clipPath>
<clipPath id="clip1">
<rect width="198.892" height="110.245" fill="white" transform="translate(1.55078)"/>
</clipPath>
</defs>
</svg>
